<svg width="288" height="432" viewBox="0 0 288 432" fill="none" xmlns="http://www.w3.org/2000/svg">
    <g opacity="0.8" clip-path="url(#clip0)">
    <path d="M251.716 98.2982C251.716 98.2982 251.033 96.0936 249.555 92.2967C257.403 90.7045 272.986 85.6828 274.009 70.1278C274.806 58.7372 277.194 47.469 281.175 36.9358C281.175 36.9358 269.687 34.9761 260.701 29.587C251.716 24.1979 230.673 20.8909 216.91 43.0598C195.412 22.7281 162.427 7.54057 114.199 21.2583C109.308 22.6056 104.417 24.1979 99.6398 26.1575L99.4123 26.28C89.5166 30.1994 80.3033 35.8334 72.1138 42.9373C58.3507 20.8909 37.4218 24.0754 28.3223 29.4645C19.2228 34.8536 7.84835 36.8133 7.84835 36.8133C11.8294 47.469 14.218 58.6147 15.0142 70.1278C16.0379 86.4177 32.7583 91.1944 40.3792 92.5417C10.6919 147.658 -22.7488 239.885 25.8199 319.497C45.8389 355.629 105.782 405.478 105.782 405.478C105.782 405.478 94.8626 412.582 100.55 413.807C106.237 415.031 108.853 411.235 108.853 411.235C108.853 411.235 105.1 416.991 108.853 416.991C112.607 416.991 123.071 405.478 123.071 405.478V371.184C137.062 372.776 151.166 372.776 165.156 371.184V405.478C165.156 405.478 175.735 416.991 179.488 416.991C183.242 416.991 179.488 411.235 179.488 411.235C179.488 411.235 182.218 415.031 187.791 413.807C193.365 412.582 182.559 405.478 182.559 405.478C182.787 405.233 242.389 355.751 262.521 319.62C263.318 318.762 264 318.027 264.796 317.17C264.682 317.047 324.967 238.048 251.716 98.2982Z" fill="#EBA5A5"/>
    <path d="M216.342 343.871C216.342 359.671 183.356 372.409 142.749 372.409C102.143 372.409 69.1567 359.671 69.1567 343.871C69.1567 328.072 102.143 315.334 142.749 315.334C183.356 315.334 216.342 328.072 216.342 343.871Z" fill="#D88484"/>
    <path d="M70.2941 43.673C70.2941 43.673 -82.0093 236.456 61.6495 363.101H143.318V16.9724C143.318 16.9724 99.4125 16.9724 70.2941 43.673Z" fill="#D88484"/>
    <path d="M121.934 363.101V405.479H104.645C104.645 405.479 39.9243 351.71 22.4077 315.334C22.4077 315.334 112.493 317.906 121.934 363.101Z" fill="#D88484"/>
    <path d="M164.019 363.101V405.479H181.308C181.308 405.479 246.029 351.71 263.545 315.334C263.545 315.334 173.46 317.906 164.019 363.101Z" fill="#D88484"/>
    <path d="M98.1612 26.4033C98.1612 26.4033 14.7868 100.871 35.147 228.005C55.5072 355.14 195.981 395.068 263.545 317.048C263.545 317.048 323.829 238.049 250.578 98.4215C250.578 98.544 215.09 -18.3019 98.1612 26.4033Z" fill="#EBA5A5"/>
    <path d="M121.934 405.479C121.934 405.479 111.356 416.992 107.602 416.992C103.849 416.992 107.602 411.235 107.602 411.235C107.602 411.235 104.872 415.032 99.2989 413.807C93.7255 412.583 104.645 405.479 104.645 405.479C104.645 405.479 116.929 403.642 121.934 405.479Z" fill="#CC6666"/>
    <path d="M164.133 405.479C164.133 405.479 174.711 416.992 178.465 416.992C182.218 416.992 178.465 411.235 178.465 411.235C178.465 411.235 181.194 415.032 186.768 413.807C192.341 412.583 181.536 405.479 181.536 405.479C181.536 405.479 169.024 403.642 164.133 405.479Z" fill="#CC6666"/>
    <path d="M71.0901 43.428L42.7678 93.2774C42.7678 93.2774 15.2417 91.4402 13.8768 70.3736C13.0806 58.983 10.692 47.7148 6.71094 37.1816C6.71094 37.1816 18.1991 35.2219 27.1849 29.8328C36.1707 24.4436 57.327 21.0142 71.0901 43.428Z" fill="#D88484"/>
    <path d="M51.2985 66.3318C50.5023 66.3318 49.8199 65.8418 49.4786 64.9845C43.4502 48.4497 29.4597 52.2466 28.8909 52.4915C27.8672 52.7365 26.8435 52.0016 26.5023 50.8993C26.2748 49.797 26.8435 48.8171 27.7535 48.4497C27.981 48.4497 45.7251 43.3055 53.1184 63.5147C53.4597 64.617 53.0047 65.8418 51.981 66.2093C51.7535 66.2093 51.526 66.3318 51.2985 66.3318Z" fill="#CC6666"/>
    <path d="M50.0479 63.5148C49.8204 63.5148 49.5929 63.5148 49.2517 63.3923C35.9436 57.5133 29.6877 62.7799 29.4602 63.0249C28.664 63.7597 27.4128 63.6373 26.7303 62.7799C26.0479 61.9225 26.1616 60.5753 26.9578 59.8404C27.2991 59.4729 35.0337 52.6141 50.7303 59.4729C51.754 59.9629 52.209 61.1877 51.754 62.1675C51.6403 63.0249 50.8441 63.5148 50.0479 63.5148Z" fill="#CC6666"/>
    <path d="M215.659 43.428L243.981 93.2774C243.981 93.2774 271.508 91.4402 272.872 70.3736C273.669 58.983 276.057 47.7148 280.038 37.1816C280.038 37.1816 268.55 35.2219 259.564 29.8328C250.579 24.4436 229.422 21.0142 215.659 43.428Z" fill="#EBA5A5"/>
    <path d="M235.45 66.3318C235.223 66.3318 234.996 66.3318 234.768 66.2093C233.744 65.8418 233.289 64.617 233.631 63.5147C240.91 43.3055 258.768 48.4497 258.996 48.4497C260.019 48.6946 260.702 49.797 260.474 51.0218C260.247 52.1241 259.223 52.859 258.086 52.614C257.972 52.614 257.972 52.614 257.858 52.614C257.289 52.4915 243.299 48.5722 237.27 65.107C236.929 65.8418 236.247 66.3318 235.45 66.3318Z" fill="#CC6666"/>
    <path d="M236.588 63.5148C235.564 63.5148 234.654 62.5349 234.654 61.4326C234.654 60.5753 235.109 59.8404 235.905 59.4729C251.602 52.6141 259.337 59.4729 259.678 59.8404C260.474 60.6977 260.474 61.9225 259.792 62.7799C259.109 63.5148 257.972 63.6373 257.176 63.0249C256.834 62.7799 250.692 57.5133 237.384 63.3923C237.043 63.3923 236.815 63.5148 236.588 63.5148Z" fill="#CC6666"/>
    <path d="M143.318 306.393C177.052 306.393 204.398 276.726 204.398 240.131C204.398 203.536 177.052 173.869 143.318 173.869C109.584 173.869 82.2373 203.536 82.2373 240.131C82.2373 276.726 109.584 306.393 143.318 306.393Z" fill="#FFA55C"/>
    <path opacity="0.9" d="M200.759 240.376C200.531 274.425 174.711 301.738 143.09 301.493C111.47 301.248 86.1046 273.445 86.3321 239.396C86.5596 205.592 112.152 178.279 143.545 178.279C175.28 178.401 200.986 206.204 200.759 240.376Z" fill="#F9D285"/>
    <path d="M146.795 278.798V289.756H140.942V279.202C132.951 279.202 126.461 277.754 121.471 274.859V266.072C123.647 267.789 126.611 269.237 130.362 270.415C134.152 271.56 137.678 272.132 140.942 272.132V246.276C132.689 242.708 127.342 239.425 124.904 236.429C122.465 233.399 121.246 229.831 121.246 225.723C121.246 220.842 123.103 216.633 126.817 213.098C130.531 209.53 135.24 207.392 140.942 206.685V197.595H146.795V206.483C154.149 206.685 159.232 207.628 162.046 209.311V217.896C158.219 215.203 153.136 213.755 146.795 213.553V240.216C154.599 243.549 159.926 246.781 162.778 249.912C165.667 253.01 167.111 256.545 167.111 260.517C167.111 265.298 165.31 269.321 161.709 272.586C158.144 275.818 153.173 277.889 146.795 278.798ZM140.942 237.389V213.856C137.791 214.428 135.296 215.691 133.458 217.643C131.619 219.562 130.7 221.902 130.7 224.663C130.7 227.558 131.45 229.932 132.951 231.783C134.452 233.635 137.116 235.503 140.942 237.389ZM146.795 248.902V271.728C154.036 270.314 157.657 266.813 157.657 261.224C157.657 256.578 154.036 252.471 146.795 248.902Z" fill="#FFA55C"/>
    <path d="M22.5217 185.75C22.5217 185.75 31.5075 212.328 50.1615 228.74C71.8867 247.847 109.763 264.137 116.474 271.241C116.474 271.241 123.64 276.63 120.569 288.633C120.569 288.633 81.0999 335.298 6.82505 261.932C6.7113 261.932 13.9909 208.409 22.5217 185.75Z" fill="#D88484"/>
    <path d="M120.455 288.633C124.095 290.103 128.19 289.98 131.83 288.388C138.085 285.816 122.844 280.182 122.844 280.182C122.844 280.182 129.896 275.773 129.668 269.281C129.441 262.79 116.36 271.118 116.36 271.118C116.36 271.118 120.341 276.875 120.455 288.633Z" fill="#CC6666"/>
    <path d="M139.223 126.592C139.223 130.879 137.403 134.308 135.015 134.308C132.626 134.308 130.806 130.879 130.806 126.592C130.806 122.305 132.626 118.876 135.015 118.876C137.403 118.876 139.223 122.305 139.223 126.592Z" fill="#454F55"/>
    <path d="M155.83 126.592C155.83 130.879 154.01 134.308 151.735 134.308C149.46 134.308 147.526 130.879 147.526 126.592C147.526 122.305 149.346 118.876 151.621 118.876C153.896 118.876 155.83 122.305 155.83 126.592Z" fill="#454F55"/>
    <path d="M143.318 150.108C124.323 150.108 108.854 139.575 108.854 126.469C108.854 113.364 124.323 102.953 143.318 102.953C162.313 102.953 177.782 113.487 177.782 126.592C177.782 139.697 162.427 150.108 143.318 150.108ZM143.318 107.118C126.484 107.118 112.721 115.814 112.721 126.469C112.721 137.125 126.484 145.821 143.318 145.821C160.152 145.821 174.029 137.125 174.029 126.469C174.029 115.814 160.266 107.118 143.318 107.118Z" fill="#CC6666"/>
    <path d="M198.37 93.0324C198.37 103.933 193.251 112.752 186.882 112.752C180.512 112.752 175.394 103.933 175.394 93.0324C175.394 82.1317 180.512 73.3131 186.882 73.3131C193.251 73.3131 198.37 82.1317 198.37 93.0324Z" fill="#454F55"/>
    <path d="M193.82 85.9286C193.82 88.7456 191.773 91.0728 189.157 91.0728C186.541 91.0728 184.379 88.8681 184.379 86.0511C184.379 83.234 186.427 80.9069 189.043 80.9069C189.043 80.9069 189.043 80.9069 189.157 80.9069C191.659 80.9069 193.82 83.1116 193.82 85.9286Z" fill="white"/>
    <path d="M111.356 93.0324C111.356 103.933 106.237 112.752 99.8676 112.752C93.4979 112.752 88.3794 103.933 88.3794 93.0324C88.3794 82.1317 93.4979 73.3131 99.8676 73.3131C106.237 73.3131 111.356 82.1317 111.356 93.0324Z" fill="#454F55"/>
    <path d="M105.214 85.9286C105.214 88.7456 103.166 91.0728 100.55 91.0728C97.9341 91.0728 95.7729 88.8681 95.7729 86.0511C95.7729 83.234 97.8204 80.9069 100.436 80.9069C100.436 80.9069 100.436 80.9069 100.55 80.9069C103.053 80.9069 105.214 83.1116 105.214 85.9286Z" fill="white"/>
    <path d="M260.816 273.445C260.816 273.445 251.944 246.867 233.403 230.332C211.678 211.103 173.915 194.813 167.204 187.587C167.204 187.587 160.038 182.075 163.223 170.195C163.223 170.195 208.721 126.592 276.853 197.385C276.853 197.385 269.46 250.909 260.816 273.445Z" fill="#EBA5A5"/>
    <path d="M166.294 168.358C163.45 165.418 159.697 163.826 155.716 163.703C149.005 163.458 160.948 175.094 160.948 175.094C160.948 175.094 152.872 176.074 150.711 182.198C148.55 188.322 165.384 185.872 165.384 185.872C165.384 185.872 162.086 179.381 166.294 168.358Z" fill="#CC6666"/>
    <path d="M245.915 167.01C245.915 167.01 220.778 153.048 183.015 159.784C154.351 164.806 161.29 189.179 174.256 194.078C192.342 200.815 229.195 223.963 237.157 234.007C237.157 234.007 225.214 212.083 204.399 203.999C177.1 193.344 168.342 191.751 167.545 178.523C166.749 165.296 200.304 156.11 245.915 167.01Z" fill="#D88484"/>
    </g>
    <defs>
    <clipPath id="clip0">
    <rect width="288" height="432" fill="white"/>
    </clipPath>
    </defs>
    </svg>
    